CIRCLE_SECTORLINE:AATWR:EGAA:2.5
DISPLAY:AAAPP:AAAPP:AATWR
DISPLAY:AATWR:AAAPP:AATWR

SECTORLINE:AAAPP
DISPLAY:AAR:AAR:AAAPP
DISPLAY:AAAPP:AAR:AAAPP
COORD:N054.48.27.000:W006.12.57.000
COORD:N054.48.18.796:W006.10.11.524
COORD:N054.47.54.434:W006.07.31.075
COORD:N054.47.14.654:W006.05.00.529
COORD:N054.46.20.664:W006.02.44.461
COORD:N054.45.14.105:W006.00.47.005
COORD:N054.43.57.000:W005.59.11.729
COORD:N054.42.31.691:W005.58.01.528
COORD:N054.41.00.770:W005.57.18.536
COORD:N054.39.27.000:W005.57.04.059
COORD:N054.37.53.230:W005.57.18.536
COORD:N054.36.22.309:W005.58.01.528
COORD:N054.34.57.000:W005.59.11.729
COORD:N054.33.39.895:W006.00.47.005
COORD:N054.32.33.336:W006.02.44.461
COORD:N054.31.39.346:W006.05.00.529
COORD:N054.30.59.566:W006.07.31.075
COORD:N054.30.35.204:W006.10.11.524
COORD:N054.30.27.000:W006.12.57.000
COORD:N054.30.35.204:W006.15.42.476
COORD:N054.30.59.566:W006.18.22.925
COORD:N054.31.39.346:W006.20.53.471
COORD:N054.32.33.336:W006.23.09.539
COORD:N054.33.39.895:W006.25.06.995
COORD:N054.34.57.000:W006.26.42.271
COORD:N054.36.22.309:W006.27.52.472
COORD:N054.37.53.230:W006.28.35.464
COORD:N054.39.27.000:W006.28.49.941
COORD:N054.41.00.770:W006.28.35.464
COORD:N054.42.31.691:W006.27.52.472
COORD:N054.43.57.000:W006.26.42.271
COORD:N054.45.14.105:W006.25.06.995
COORD:N054.46.20.664:W006.23.09.539
COORD:N054.47.14.654:W006.20.53.471
COORD:N054.47.54.434:W006.18.22.925
COORD:N054.48.18.796:W006.15.42.476
COORD:N054.48.27.000:W006.12.57.000

SECTORLINE:AAAPP_BEL
DISPLAY:AAR:AAR:Antrim
DISPLAY:Antrim:AAR:Antrim
COORD:N054.50.47.969:W005.01.36.467
COORD:N054.28.00.605:W005.09.56.484
COORD:N053.56.17.285:W005.36.19.941

SECTORLINE:AAAPP2
DISPLAY:Rathlin:Rathlin:Antrim
DISPLAY:Antrim:Antrim:Rathlin
COORD:N054.55.19.336:W005.17.09.687
COORD:N054.57.14.057:W005.15.38.920
COORD:N054.54.17.255:W005.30.00.967
COORD:N054.50.31.076:W006.24.55.612
COORD:N054.49.19.029:W006.27.31.566
COORD:N054.47.37.716:W006.30.19.854
COORD:N054.45.56.402:W006.32.23.495
COORD:N054.43.51.251:W006.34.06.528
COORD:N054.41.28.221:W006.35.11.783
COORD:N054.39.11.150:W006.35.22.086
COORD:N054.37.10.139:W006.35.03.609
COORD:N054.34.49.162:W006.34.03.430
COORD:N054.32.55.930:W006.32.27.265
COORD:N054.30.50.778:W006.29.49.280
COORD:N054.29.27.344:W006.27.18.164
COORD:N054.28.19.802:W006.24.36.745
COORD:N054.27.53.977:W006.23.10.884
COORD:N054.05.18.332:W006.24.45.961

SECTORLINE:AAAPP3
COORD:N054.05.18.332:W006.24.45.961
COORD:N053.56.17.285:W005.36.19.941

SECTORLINE:AAAPP4
COORD:N054.50.47.969:W005.01.36.467
COORD:N054.55.19.336:W005.17.09.687