ABAPO N052.06.10.000 W004.48.12.000
ABAVI N051.28.34.450 W000.45.05.670
ABBOT N052.00.58.000 E000.35.58.000
ABDAL N051.26.46.000 W001.51.48.000
ABDUK N051.38.34.000 W003.48.01.000
ABDUS N049.20.40.430 W002.51.41.970
ABEDA N052.19.40.000 E001.52.16.000
ABEVI N054.42.27.000 W002.46.29.000
ABIBI N051.06.27.140 W000.28.53.920
ABKAT N054.08.53.000 W001.58.47.000
ABKIM N050.50.43.000 W001.58.58.000
ABLIN N052.46.58.000 W004.59.33.000
ABSAV N050.38.29.000 W001.10.29.000
ABSUN N054.17.32.000 W006.15.18.000
ABTUM N051.26.04.000 E001.22.29.000
ACORN N051.15.19.000 E000.11.46.000
ADELU N053.26.30.000 W001.32.13.000
ADGEG N053.13.43.000 E002.19.06.000
ADMAG N051.14.01.910 E000.29.33.640
ADMEX N052.21.39.000 W001.27.45.000
ADMIS N051.59.49.000 E000.10.36.000
ADNAM N052.06.17.000 E000.44.19.000
ADODO N058.30.00.000 W010.00.00.000
ADPOD N050.44.22.360 W000.27.21.290
ADRUD N049.10.14.000 W006.26.55.000
ADRUG N051.42.26.000 W000.41.10.000
ADSON N052.17.08.470 W000.33.04.510
ADURI N050.57.46.360 W000.13.02.790
ADVED N051.17.40.000 W003.02.27.780
AGANO N049.39.54.000 W002.00.00.000
AGORI N057.00.00.000 W013.00.00.000
AGPED N055.07.18.900 W001.56.57.150
AKIVO N059.57.52.000 W009.30.00.000
AKOKO N053.14.16.000 E003.12.07.000
AKUPA N052.29.12.000 W001.05.28.000
ALASO N055.26.50.000 W001.33.54.000
ALESO N050.34.32.000 E001.13.32.000
ALKIN N051.23.26.000 E000.11.41.000
ALLOY N061.21.22.000 E001.47.18.000
ALOTI N057.54.27.000 E003.36.30.000
ALUTA N049.00.19.000 W007.29.53.000
ALVIN N051.39.45.000 W002.40.42.000
AMDUT N050.40.28.000 E000.47.46.000
AMIBA N049.21.31.490 W002.19.54.390
AMLAD N056.15.52.000 W010.00.00.000
AMLET N053.16.07.000 W001.50.18.000
AMMAN N051.50.26.000 W003.59.54.000
AMPIT N053.11.39.000 W003.11.33.000
AMPOP N049.31.47.680 W006.09.02.850
AMRAL N052.06.53.000 W002.54.33.000
AMTAP N058.22.25.000 W009.30.00.000
AMVEL N053.11.03.000 W000.01.55.000
ANGLA N049.42.14.000 W002.01.15.000
ANGLO N049.55.42.000 W000.27.18.000
ANGUS N056.41.39.000 W003.03.20.000
ANNET N049.39.05.000 W004.00.05.000
APPLE N054.30.00.000 W002.30.50.000
APSOV N055.49.23.000 W010.00.00.000
ARKIL N050.39.28.000 W008.00.00.000
ARNUN N051.03.26.000 E000.55.53.000
ARPIT N051.11.19.230 E000.05.35.330
ARPUB N053.35.34.000 W001.14.28.000
ARSAT N054.32.06.000 W001.44.19.000
ARTEX N056.53.41.000 E003.57.38.000
ARTHA N053.46.59.000 W002.17.07.000
ARTIX N053.23.42.000 W001.02.09.000
ARTOV N051.54.19.000 E001.25.33.000
ASKAM N054.57.47.000 E003.13.50.000
ASKEY N052.00.50.000 W000.03.10.000
ASKOG N050.56.48.330 W002.59.18.430
ASLIB N054.49.28.000 W003.03.39.000
ASMIM N053.26.46.000 W002.39.11.000
ASNIP N053.28.43.000 W002.54.26.000
ASPEN N050.17.34.000 W001.48.20.000
ASRAX N051.31.17.000 W004.16.43.000
ASRUS N055.03.21.000 W003.20.45.000
ASTRA N050.51.56.000 W000.08.47.000
ATNAK N057.00.00.000 E005.00.00.000
ATSIX N060.00.00.000 W010.00.00.000
ATSUR N050.00.00.000 W014.00.00.000
ATWEL N050.50.51.000 W003.25.01.000
AVANT N050.49.12.000 W000.56.18.000
AVRAL N055.30.34.000 E003.42.59.000
BABAX N050.25.11.000 W003.48.17.000
BABRA N053.37.39.000 W003.56.43.000
BADIM N051.38.38.000 W002.30.40.000
BADSI N052.39.30.000 W004.46.17.000
BAGIN N049.06.11.970 W002.26.30.930
BAGIT N053.13.45.000 W003.59.18.000
BAGSO N053.40.48.000 W005.30.00.000
BAKER N051.29.42.000 E000.17.53.000
BAKUR N052.14.30.000 W005.40.49.000
BALID N056.29.49.000 W001.57.07.000
BALIS N057.14.03.000 W002.03.54.000
BALIX N059.00.00.000 W010.00.00.000
BAMBO N051.52.37.000 W001.37.00.000
BAMEP N053.52.42.000 W002.16.09.000
BAMRA N059.26.00.000 W003.57.10.000
BANBA N051.57.10.000 W006.14.21.000
BANEM N052.20.08.000 E001.30.19.000
BANTO N052.21.28.000 W000.13.57.000
BANVA N050.32.42.000 E000.45.12.000
BAPAG N051.43.05.000 W000.07.24.000
BAPIS N052.18.18.220 W000.22.53.230
BARKU N060.36.18.000 W009.24.36.000
BARMI N052.28.42.000 E002.34.14.000
BAROS N053.24.22.000 W003.26.43.000
BARSU N053.44.54.270 W002.34.00.510
BARTN N053.28.14.000 W002.25.41.000
BATLI N053.38.45.000 W001.21.37.000
BATSU N050.42.31.260 W003.03.35.790
BAXUN N051.19.35.410 W002.26.23.580
BEBNI N054.59.06.000 W003.35.14.000
BEDEK N051.22.15.000 W001.33.31.000
BEDFO N052.13.30.000 W000.33.48.000
BEDRA N049.00.00.000 W015.00.00.000
BEGAM N054.09.25.000 W002.07.15.000
BEGAS N045.00.00.000 W009.00.00.000
BEGID N056.30.00.000 W014.00.00.000
BEGTI N051.07.44.820 E001.11.05.370
BEGTO N050.45.45.000 W001.14.08.000
BEKET N058.53.13.000 W001.31.20.000
BEKMO N052.59.10.000 E002.37.10.000
BELOX N053.53.16.000 W003.29.23.000
BEMID N051.34.26.000 E000.20.56.000
BEMLA N051.05.19.080 E000.49.15.830
BENBO N050.27.05.000 E000.00.37.000
BENIX N049.32.48.000 W001.29.24.000
BENPA N051.27.48.760 W000.44.55.760
BENSU N051.34.44.000 W000.55.08.000
BENTY N059.46.15.000 W001.08.10.000
BEPOX N052.07.10.070 W000.06.56.090
BEREP N059.02.09.000 E001.44.20.000
BERUL N052.40.16.000 W003.31.13.000
BERUX N045.00.00.000 W011.00.00.000
BESGA N060.47.23.000 W007.54.46.000
BETAX N053.00.33.000 W000.54.03.000
BETPO N051.47.54.000 W000.43.28.000
BEVAM N055.43.53.000 E000.15.03.000
BEVAV N049.04.01.000 W001.41.26.000
BEVEL N050.24.54.000 W001.59.07.000
BEVLU N052.12.11.160 W000.20.05.530
BEVUP N050.48.00.000 W002.14.20.000
BEWLI N050.45.31.000 W001.48.37.000
BIGLI N052.07.48.000 W000.14.30.000
BIGNO N050.00.00.000 W002.49.30.000
BILLY N060.01.11.000 W008.34.08.000
BILNI N050.40.31.000 W002.07.33.000
BILTO N056.30.00.000 W015.00.00.000
BILVO N053.43.52.000 W003.11.09.000
BIMGO N049.30.00.000 W014.00.00.000
BINBO N053.24.06.000 E003.20.29.000
BINTI N054.33.45.000 W001.59.45.000
BIPMI N050.55.59.250 W002.19.08.400
BISRU N051.04.18.000 E000.22.02.000
BITLI N050.57.55.460 W000.18.34.620
BLACA N054.53.00.000 W005.09.32.000
BODAM N059.55.06.000 W001.16.06.000
BODSO N053.03.08.000 E002.05.41.000
BOGMI N050.59.53.000 W007.12.17.000
BOGNA N050.42.07.000 W000.15.06.000
BOLBI N053.28.00.000 W001.48.45.000
BOLRO N050.00.00.000 W001.41.29.000
BOMBO N051.59.44.000 W000.23.47.000
BONBY N057.53.30.000 W004.20.36.000
BOVVA N051.43.34.000 W000.32.59.000
BOYNE N053.46.02.000 W005.30.00.000
BRAIN N051.48.40.000 E000.39.06.000
BRASO N051.41.07.000 E000.41.00.000
BRILL N049.42.09.000 W002.23.23.000
BRIPO N050.42.27.000 W002.45.00.000
BRUCE N056.14.11.000 W005.50.28.000
BUDON N057.42.07.000 W000.33.43.000
BUKUT N052.45.30.000 E002.48.02.000
BUMUX N050.48.16.000 W003.20.58.000
BUNAV N046.30.00.000 W008.45.00.000
BURNI N053.43.38.000 W002.31.04.000
BUSTA N052.05.34.000 E000.04.04.000
BUZAD N051.56.32.000 W000.33.08.000
CALDA N053.46.27.000 W002.38.38.000
CAMBO N049.17.30.000 W005.51.35.000
CASEL N053.49.52.000 W004.10.57.000
CASEY N052.00.31.000 E000.34.59.000
CEDAR N052.31.07.000 W001.49.12.000
CHASE N052.36.48.000 W001.55.02.000
CHINN N057.57.51.000 W004.11.17.000
CHUBB N049.25.54.000 W002.48.30.000
CLIPY N052.00.03.000 W001.05.09.000
CLYDE N055.57.48.000 W004.47.32.000
COLRE N055.06.59.000 W006.44.02.000
COWLY N051.36.58.000 W001.03.54.000
CREWE N052.49.07.000 W002.18.27.000
CROFT N053.37.37.000 W002.32.20.000
CUMBO N055.56.34.000 W003.57.32.000
CUTEL N055.53.09.000 E002.22.28.000
DAGGA N051.49.19.000 E000.47.39.000
DALEY N053.40.08.000 W002.20.57.000
DAVOT N057.20.42.000 W004.05.29.000
DAWLY N050.34.27.000 W003.27.50.000
DAYNE N053.14.19.000 W002.01.45.000
DEGOS N054.11.21.000 W006.54.23.000
DEKAP N051.56.37.280 W000.53.37.100
DELBO N051.52.37.000 W001.16.24.000
DENBY N053.31.13.000 W001.57.40.000
DENOG N057.25.53.000 W001.45.16.000
DESIG N053.31.38.000 W001.53.34.000
DEVAL N050.51.25.000 E001.28.00.000
DEVBI N060.42.54.000 W008.46.10.000
DEVOM N050.43.18.000 W003.45.19.000
DEXEN N053.16.46.000 W005.30.00.000
DIBAL N052.47.50.000 E002.30.00.000
DIDEL N050.50.35.000 W003.59.50.000
DIGBI N055.11.06.000 W001.03.01.000
DIGSU N052.01.26.000 N000.38.05.000
DIGUT N051.39.01.000 W001.17.59.000
DIKAS N051.46.37.000 W003.15.33.000
DIKRO N049.35.05.000 W001.06.39.000
DIKVU N051.17.47.000 E000.19.02.000
DILAX N051.45.20.000 W001.40.39.000
DIMLI N054.56.47.000 W006.36.55.000
DINBI N050.58.54.570 E000.46.38.710
DINIM N051.00.00.000 W015.00.00.000
DIPSO N053.03.13.000 W001.20.39.000
DIRGI N060.37.17.000 W006.27.14.000
DISAL N053.17.29.000 W001.37.51.000
DISIT N052.06.11.000 W001.42.41.000
DITOB N052.17.01.000 E001.49.27.000
DIXIN N051.07.39.060 E001.09.09.370
DOBEM N051.52.11.000 W002.55.45.000
DOGAL N054.00.00.000 W015.00.00.000
DOKEK N051.25.18.000 W006.03.29.000
DOKEN N051.05.53.200 W000.34.35.150
DOLAS N052.58.43.000 E001.00.03.000
DOLOP N053.12.51.000 W003.37.51.000
DOLUR N049.29.04.000 W005.03.26.000
DOMUT N050.15.43.000 W001.40.09.000
DONIB N055.43.09.000 W007.41.44.000
DONNA N051.42.00.000 W000.44.37.000
DOPEK N053.23.04.000 W000.55.32.000
DORKI N051.16.33.000 W000.15.52.000
DOSUN N060.07.03.000 W006.23.39.000
DOWNI N057.04.39.000 W002.06.21.000
DRAKE N050.12.34.000 W000.04.34.000
DUFFY N054.30.53.000 W005.51.39.000
DUNGV N054.53.44.000 W006.47.24.000
EBOBA N050.40.25.560 W003.47.42.940
EBOTO N052.21.33.000 W000.41.40.000
EDONU N056.17.36.000 W003.33.41.000
EKLAD N053.15.14.000 W002.49.29.000
EKNIV N051.24.26.000 E000.37.31.000
EKVEG N051.44.58.160 E000.01.56.610
ELBAN N055.57.17.000 W004.30.16.000
ELBOB N054.43.58.000 W007.44.38.000
ELDAX N050.29.18.000 E000.39.30.000
ELDER N050.39.48.000 W001.20.14.000
ELKOG N060.26.48.000 W009.30.00.000
ELMUD N055.06.56.000 W001.40.24.000
ELNAB N052.22.11.000 W001.12.51.000
ELRAG N051.10.28.000 W005.06.21.000
ELROV N051.23.34.710 W002.26.45.910
ELSAN N056.42.19.000 E003.43.58.000
ELSOX N051.00.00.000 W014.00.00.000
ELVOS N052.42.01.000 W001.18.25.000
EMKAD N051.14.50.000 E000.42.34.000
EMKUK N051.58.37.000 W001.21.15.000
EMLIP N053.24.08.000 W003.21.24.000
EMLON N053.12.20.000 E002.30.00.000
EMPAS N051.22.16.220 W003.00.19.640
EMPER N049.00.00.000 W009.00.00.000
ENIPI N055.01.11.000 W003.15.10.000
ENITO N052.48.05.000 E002.28.03.000
ENOKA N055.20.10.000 W003.39.46.000
ENUKU N056.14.00.000 W003.38.19.000
EPUNA N050.30.00.000 W014.00.00.000
ERAKA N058.00.00.000 W010.00.00.000
ERDOG N059.20.03.000 W001.25.04.000
ERING N051.35.26.450 E001.36.43.000
ERLOT N055.17.14.000 W000.35.06.000
ERNAN N054.16.44.000 W007.23.34.000
ERNOK N051.41.30.000 W002.56.44.000
ERSON N056.27.48.000 W004.18.24.000
ESKDO N055.17.56.000 W003.12.15.000
ESTRY N053.39.52.000 W003.15.42.000
ETARI N055.30.00.000 W015.00.00.000
ETRID N051.07.56.000 W001.16.15.000
ETIKI N048.00.00.000 W008.45.00.000
ETILO N057.30.00.000 W010.00.00.000
ETSOM N057.53.31.000 W009.30.00.000
ETVAX N050.58.07.000 E000.35.56.000
EVBEV N057.47.10.000 W007.40.41.000
EVEXU N050.41.16.000 W000.34.41.000
EVKEX N049.42.12.000 W002.35.30.000
EVMEK N051.47.41.000 E001.12.18.000
EVNAL N057.24.31.000 W009.30.00.000
EVNAS N051.40.04.000 E000.26.38.000
EVRIN N051.46.56.000 W006.33.48.000
EVSEM N051.43.50.000 W001.27.45.000
EVSON N053.21.27.000 W001.39.49.000
EXMOR N051.10.43.000 W003.21.35.000
FAMBO N054.30.00.000 W000.27.52.000
FENIK N055.42.55.000 W004.17.31.000
FERIT N051.37.59.000 E000.32.21.000
FIMLI N051.18.04.000 W000.40.06.000
FINCH N051.33.36.000 W000.10.59.000
FINDO N056.22.09.000 W003.27.49.000
FINMA N051.59.47.000 W001.03.13.000
FIWUD N053.52.06.000 W003.04.06.000
FORTY N057.57.00.000 E000.35.45.000
FOYLE N056.08.34.000 W004.22.56.000
FULMA N055.30.23.000 W005.00.00.000
FYNER N056.02.56.000 W005.06.55.000
GAMDU N049.07.35.730 W002.09.53.690
GANKI N056.45.48.000 W002.58.08.000
GAPLI N050.00.00.000 W008.00.00.000
GARMI N050.00.00.000 W001.22.50.000
GARVA N057.41.18.000 W004.29.41.000
GASGU N051.12.24.000 W000.57.36.000
GASKO N054.13.29.000 W001.57.21.000
GATRA N051.17.52.000 W006.37.55.000
GATSU N051.04.37.930 E001.01.01.130
GAVEL N059.23.00.000 W001.24.22.000
GAVGO N051.33.50.000 W001.42.36.000
GEGMU N051.42.53.000 E001.06.34.000
GETNO N053.55.48.000 W003.29.47.000
GIBSO N050.44.59.000 W002.31.07.000
GIBSU N056.45.47.000 E003.16.10.000
GIGTO N053.38.01.000 W004.05.51.000
GIGUL N054.36.26.000 E003.10.10.000
GILDA N051.36.06.000 E000.35.01.000
GILPA N055.55.41.000 W005.52.43.000
GILTI N051.34.13.000 E002.03.18.000
GINGA N056.55.30.000 W009.30.00.000
GINIS N053.27.39.000 W004.51.29.000
GINTI N051.34.43.000 E000.22.12.000
GIPER N051.00.00.000 W012.00.00.000
GIPLO N053.31.31.000 W000.47.23.000
GIPTA N049.11.09.260 W002.27.29.310
GIRLI N054.42.41.000 W001.48.11.000
GIRNU N060.28.25.000 W000.37.10.000
GIRVA N055.11.08.000 W004.53.47.000
GISOK N051.30.09.000 W005.07.28.000
GITUS N050.20.00.000 W005.42.00.000
GIVEM N055.27.54.000 E000.14.53.000
GIVPO N053.17.10.000 E002.52.09.000
GLESK N056.54.00.000 W002.47.45.000
GOBOP N051.26.17.000 E000.22.12.000
GODOS N053.14.57.000 E003.25.47.000
GODOT N050.41.48.300 W000.17.06.630
GODPA N052.59.00.000 W003.10.01.000
GOGIG N051.53.30.000 W003.15.02.000
GOGSI N051.17.27.000 W001.00.02.000
GOKAT N050.49.18.330 E000.46.36.310
GOKOD N049.43.38.370 W002.02.35.170
GOLES N053.36.29.000 W001.05.00.000
GOLVO N054.24.41.000 E003.35.08.000
GOMOT N055.55.10.000 W000.32.39.000
GOMUP N057.00.00.000 W010.00.00.000
GONAN N045.00.00.000 W014.00.00.000
GONUT N061.00.00.000 W004.35.00.000
GOPAN N051.28.45.010 E001.26.01.780
GOPOD N052.14.35.380 E000.27.35.210
GOREV N056.03.12.000 E005.00.00.000
GORSE N057.10.37.000 W001.53.51.000
GOSAM N055.47.19.180 W004.12.02.100
GOTNA N054.35.41.000 W005.35.53.000
GOXUL N051.21.32.020 W000.10.33.490
GRICE N056.11.48.000 W003.41.08.000
GROVE N052.23.38.000 W001.55.44.000
GULDA N049.23.07.000 W001.55.03.000
GUNPA N061.00.00.000 E000.00.00.000
GUNSO N049.03.10.000 W011.46.06.000
GUNTU N053.35.37.000 W003.09.54.000
GUSSI N057.12.47.000 W004.07.27.000
HALIF N053.44.06.000 W001.34.50.000
HANKY N051.06.46.000 W001.07.51.000
HARDY N050.28.16.000 E000.29.28.000
HASTY N050.43.42.000 E000.32.00.000
HAVEN N055.27.40.000 W002.59.47.000
HAWKE N050.22.27.000 E000.05.25.000
HAZEL N051.00.19.000 W000.59.04.000
HEIDI N052.06.44.000 W000.37.24.000
HEMEL N051.48.20.000 W000.25.10.000
HERON N055.20.35.000 W005.00.00.000
HILLY N051.20.06.000 E000.14.37.000
HOGBA N051.13.41.000 W000.29.43.000
HOLLY N050.53.12.000 W000.05.42.000
IBOLU N053.31.54.000 W003.41.11.000
IBRAR N053.31.54.000 W003.41.11.000
IBROD N056.30.00.000 W010.00.00.000
IDESI N051.53.52.000 E001.53.08.000
IDEXA N053.28.14.000 W005.09.51.000
IDKOL N054.05.43.000 W001.59.45.000
IDOKI N049.51.37.000 W006.11.39.000
IDOVO N052.13.26.000 W003.33.04.000
INBAS N056.42.00.000 W004.14.59.000
INBOB N055.36.25.000 E005.00.00.000
INGUR N051.42.42.000 W002.51.37.000
INKEK N050.38.53.000 W000.32.09.000
INLAK N051.28.41.000 W001.31.27.000
INPIP N054.52.35.540 W002.53.46.100
INPUT N055.18.18.000 E004.39.05.000
INREV N055.08.57.440 W003.05.39.460
INRUB N051.49.10.000 W003.51.41.000
INSUN N050.23.43.000 W006.19.24.000
IPDIP N050.59.42.700 W002.54.23.210
IPNOX N054.13.40.000 W002.42.22.000
IPRES N050.59.04.640 W002.23.44.150
IPRIL N051.40.29.000 W000.13.35.000
IPSAD N053.31.54.000 W003.41.11.000
IPSIR N054.04.54.000 W001.56.57.000
IRKUM N052.59.48.000 W005.22.39.000
IRKUN N050.55.16.000 E001.28.00.000
ITSUX N056.03.00.000 E003.30.00.000
ITVIP N051.17.14.000 E001.03.12.000
IVLAR N051.28.41.570 W000.10.00.070
IVLOD N053.07.46.000 W003.09.19.000
IXURA N052.04.05.000 W001.25.40.000
IZACK N059.53.27.000 W001.01.13.000
JACKO N051.44.09.000 E001.25.36.000
KAPEX N050.40.30.000 W001.51.00.000
KARNO N052.53.40.000 W002.53.54.000
KATHY N050.31.14.000 W001.20.00.000
KEGUN N053.11.33.000 W003.09.01.000
KELLY N053.54.19.000 W004.21.51.000
KEMPY N052.07.39.000 E000.38.46.000
KENET N051.31.14.000 W001.27.18.000
KEPAD N052.48.35.000 W002.28.44.000
KESEG N060.00.58.000 W006.00.56.000
KESIX N056.57.00.000 W014.00.00.000
KESUP N051.19.32.000 W003.39.17.000
KETIK N049.19.24.000 W001.52.23.000
KIDLI N051.46.17.000 W001.21.41.000
KLONN N058.23.24.000 E002.49.44.000
KOGAD N049.30.00.000 W015.00.00.000
KOKAL N058.57.35.000 W002.53.38.000
KOKIB N054.30.00.000 W014.00.00.000
KOKOS N048.54.25.000 W001.40.34.000
KOLAG N053.02.37.000 E003.15.18.000
KOLID N053.34.26.000 W002.45.21.000
KONAN N051.07.51.000 E002.00.00.000
KOPUL N051.32.32.000 E001.08.14.000
KOTEM N050.00.00.000 W001.03.14.000
KUBAX N052.56.34.000 E002.57.13.000
KUGUR N055.30.00.000 W010.00.00.000
KUKIS N051.41.56.000 W003.04.37.000
KUMIL N050.34.31.000 W001.36.39.000
KUNAV N050.30.54.000 E001.03.56.000
KUPET N051.51.56.760 W002.34.30.780
KUVOX N057.04.59.000 W007.36.24.000
KUXEM N053.15.11.000 W002.40.47.000
LAGAV N056.53.35.000 W004.12.10.000
LAGER N053.36.40.000 W000.08.49.000
LAGUL N049.26.14.000 W002.36.13.000
LAKEY N054.14.20.000 W002.58.52.000
LAMAT N051.18.07.000 W003.01.03.000
LAMIX N053.18.29.000 W000.40.56.000
LAMMA N055.51.30.000 W002.46.03.000
LAMRO N057.01.51.000 E003.33.09.000
LAMSO N052.43.58.000 E002.59.40.000
LAMVI N053.47.00.000 W004.03.58.000
LANAK N055.42.01.000 W003.56.19.000
LANLO N049.59.27.000 W005.57.08.000
LANON N052.25.52.000 W004.22.21.000
LANPI N052.11.37.000 W005.19.36.000
LAPEX N047.00.00.000 W008.00.00.000
LAPLI N049.16.06.540 W002.28.27.890
LAPRA N052.07.07.000 E001.12.36.000
LARCK N050.54.41.830 E000.26.47.930
LARDI N053.36.16.000 E003.30.57.000
LARGA N054.51.50.000 E004.09.12.000
LARLA N049.22.41.000 W007.07.15.000
LASNO N048.35.54.000 W009.00.00.000
LATMU N053.15.25.000 E002.05.22.000
LAVRI N051.15.49.000 E000.34.49.000
LAVTI N057.08.18.000 W002.24.17.000
LEDBO N052.32.35.000 E002.06.08.000
LEDGO N051.14.24.000 W007.34.05.000
LEGRO N053.19.35.000 E001.30.46.000
LELNA N049.58.57.000 W002.06.23.000
LERAK N049.01.08.000 W002.24.31.000
LESLU N051.00.00.000 W008.00.00.000
LESNI N057.32.33.000 W001.16.22.000
LESRA N055.23.08.000 E005.00.00.000
LESTA N052.44.27.000 W001.04.19.000
LETSI N050.51.38.610 W003.07.05.060
LIBBA N055.43.26.000 W003.44.43.000
LIBSO N053.31.29.000 E000.05.36.000
LIFFY N053.28.48.000 W005.30.00.000
LINDY N051.28.14.000 W001.02.57.000
LIPGO N053.03.50.000 W005.30.00.000
LIRGU N054.30.22.230 W006.26.07.970
LIRKI N061.00.00.000 W001.51.00.000
LISBO N054.31.30.000 W006.05.24.000
LISTO N053.08.36.000 W002.11.57.000
LIZAD N049.35.25.000 W004.19.49.000
LOGAN N051.44.51.000 E001.36.43.000
LOMON N056.03.46.000 W004.34.48.000
LOMVO N053.16.16.000 W005.10.46.000
LONAM N053.50.22.000 E003.56.33.000
LONLO N052.46.49.000 W002.00.51.000
LONRU N051.10.58.020 E000.56.03.100
LOREL N052.00.50.000 W000.03.10.000
LORKU N049.56.18.000 W002.22.16.000
LOVEL N053.15.06.000 W002.16.28.000
LUCCO N050.41.30.000 W001.06.30.000
LULOX N050.22.00.000 W008.00.00.000
LUMBA N050.56.44.000 E000.15.42.000
LUNEX N054.50.36.000 W007.15.31.000
LUSEN N060.30.00.000 W010.00.00.000
LUSIT N049.12.53.000 W001.47.44.000
LUSIV N055.40.02.000 W004.14.41.000
LUTIP N053.15.22.000 W004.44.16.000
LUTOV N055.14.22.000 W010.00.00.000
LYNAS N053.26.33.000 W004.20.00.000
MABUG N049.47.05.000 W005.56.12.000
MADAD N055.54.47.000 W001.44.02.000
MADOX N058.43.43.000 W003.46.39.000
MAGEE N054.47.30.000 W005.36.30.000
MAKUX N053.58.30.000 W004.52.28.000
MALBY N051.35.33.000 W002.03.42.000
MALUD N053.24.48.000 W003.36.30.000
MAMUL N053.25.05.000 W001.16.48.000
MANGO N051.41.34.000 E000.47.26.000
MANIG N049.47.07.000 W003.15.34.000
MAPAG N051.00.00.000 W008.30.00.000
MAPLE N052.23.36.000 W001.40.51.000
MARUK N050.14.47.000 W002.04.20.000
MASOP N054.09.21.000 W004.21.15.000
MATCH N051.46.45.000 E000.15.00.000
MATIK N061.00.00.000 W008.04.00.000
MAVET N054.02.57.000 W003.31.04.000
MAVIX N055.50.50.000 W004.04.50.000
MAYLA N051.37.41.000 E000.43.12.000
MEDOG N051.57.01.000 W003.32.58.000
MEBIG N051.06.32.920 W000.29.00.230
MERLY N051.20.00.000 W005.00.00.000
MIKEL N054.16.30.000 W004.51.46.000
MIMBI N051.32.57.000 W001.41.36.000
MIMKU N056.00.00.000 W010.00.00.000
MIMVA N053.06.03.000 E003.18.13.000
MINQI N049.02.00.000 W002.03.25.000
MIPVO N052.13.29.000 E001.36.09.000
MIRSI N053.32.17.000 W002.42.42.000
MITSO N053.39.07.000 W000.53.38.000
MOCHA N059.32.56.000 W001.21.59.000
MODGO N060.26.43.000 W007.39.55.000
MOGLI N052.18.30.000 W000.16.09.000
MOGLO N055.30.00.000 W014.00.00.000
MOGMO N053.24.43.000 W001.12.51.000
MOGTA N053.10.08.000 W002.38.10.000
MOKBU N051.16.10.000 E001.29.14.000
MOLAK N054.36.49.000 W009.30.23.000
MOLIX N052.49.19.000 E003.04.07.000
MONTY N052.53.34.000 W003.10.26.000
MOPAT N051.29.55.000 W007.05.37.000
MORAG N052.45.10.000 W005.30.00.000
MORAY N058.05.00.000 W002.49.18.000
MORBY N053.55.10.000 W003.29.00.000
MOSIS N049.00.26.000 W007.12.53.000
MOSUN N051.53.38.000 W002.26.10.000
MOTOX N050.57.28.000 E001.28.00.000
MOVAD N050.48.41.000 E000.41.46.000
MOVEN N052.03.43.000 W001.48.47.000
MULIT N051.00.47.000 W003.23.19.000
NADIR N057.49.27.000 E000.00.00.000
NAKID N049.42.54.000 W004.37.23.000
NALAX N053.29.00.000 E000.24.06.000
NANEV N057.34.29.000 W002.27.14.000
NANTI N053.08.15.000 W002.34.01.000
NAPEX N053.12.23.000 W000.51.40.000
NATEB N055.02.18.000 W001.41.54.000
NATKO N053.27.12.000 W004.38.07.000
NAVEL N055.35.13.000 E000.50.31.000
NAVOV N051.48.31.000 W003.15.25.000
NAVPI N052.32.50.000 E002.50.26.000
NAVSO N055.13.22.000 W003.48.49.000
NAXAT N051.47.21.000 W001.57.56.000
NAXIL N056.57.24.000 W002.43.26.000
NEDEX N051.52.37.000 W001.28.20.000
NEDUL N050.39.58.000 W001.32.52.000
NEKAP N051.43.35.000 W005.17.26.000
NEKSA N051.27.55.720 W000.10.01.890
NELBO N054.29.24.000 W005.18.10.000
NELSA N053.51.48.000 W002.11.05.000
NENRI N049.13.51.560 W001.55.12.480
NEPNA N051.29.58.330 E000.26.56.550
NEPSO N054.14.17.000 E001.16.11.000
NERTU N049.00.00.000 W014.00.00.000
NESDI N057.07.18.000 W004.08.48.000
NESON N054.13.46.000 W007.07.24.000
NESTA N060.00.00.000 W004.10.00.000
NETKI N055.00.00.000 W014.00.00.000
NEVIL N050.00.00.000 W000.22.05.640
NEVIS N056.41.43.000 W004.32.41.000
NEVRI N054.04.06.000 W006.16.12.000
NEXAN N050.47.51.280 W003.00.17.910
NEXUS N056.12.43.000 W001.50.41.000
NIBOG N055.00.00.000 W010.00.00.000
NIGIT N051.18.47.000 W001.10.15.000
NIGOL N054.54.18.000 E002.29.32.000
NILGI N052.48.35.000 W003.10.50.000
NILON N051.35.46.000 E000.38.04.000
NIMAT N053.57.54.000 W005.44.32.000
NINEX N058.51.20.000 W009.30.00.000
NIPIT N054.27.09.000 W008.24.10.000
NIRMO N051.54.44.290 W001.53.36.630
NISBI N053.21.29.000 W000.39.21.000
NITEN N050.56.35.410 W000.07.50.310
NITON N052.33.12.000 W003.12.01.000
NIVKO N050.56.06.000 E000.32.28.000
NIVUN N057.34.12.000 E004.08.13.000
NOBAL N057.15.18.000 W002.03.36.000
NODGU N052.36.54.000 W001.55.41.000
NOKIN N053.04.36.000 W002.52.58.000
NONVA N051.38.46.000 E001.21.44.000
NORBO N055.35.45.000 W004.45.43.000
NORDA N049.47.12.000 W001.05.42.000
NORLA N051.37.09.000 W006.52.11.000
NORRY N051.28.47.000 W001.07.24.000
NOTGI N050.35.10.000 W000.25.03.000
NOTRO N050.26.12.000 W003.10.21.000
NOVBA N056.12.00.000 W003.10.51.000
NUBRI N051.20.17.000 W001.13.56.000
NUGRA N053.01.46.000 W002.18.14.000
NUMPI N054.08.40.000 W005.35.36.000
NUMPO N051.36.36.000 W003.17.01.000
NURSI N051.09.21.660 E001.03.34.490
NUTBA N052.38.49.000 W000.55.00.000
OBOXA N054.10.36.000 W001.54.20.000
OBUNI N053.54.40.000 W002.44.33.000
ODIGI N055.11.44.000 W003.25.39.000
ODMIX N056.58.12.000 E001.28.03.000
ODPEX N059.24.36.000 W009.30.00.000
ODPIX N053.00.05.000 W001.15.55.000
ODROB N051.39.15.000 E001.54.45.000
ODVIK N051.09.57.400 E000.29.09.330
OGAGI N049.27.22.000 W005.01.57.000
OGTUG N053.40.12.000 W005.08.50.000
OKAMA N053.10.15.000 E002.46.22.000
OKESI N051.26.36.000 W002.03.42.000
OKPAL N056.49.21.000 W002.04.35.000
OKTAD N051.49.04.000 W002.32.46.000
OKTEM N052.43.10.000 W003.11.15.000
OKVAP N050.57.49.000 E001.19.56.000
OLEVI N051.11.17.400 E000.06.11.300
OLIVE N052.24.12.000 W001.56.12.000
OLKER N061.00.00.000 W006.30.00.000
OLNEY N052.07.40.000 W000.44.03.000
OLPOP N054.05.32.000 W002.32.08.000
OMOKO N048.50.20.000 W012.00.00.000
ORIST N050.00.00.000 W001.50.42.000
ORMER N049.36.04.000 W002.51.29.000
ORSUM N057.03.07.000 W005.17.41.000
ORTAC N049.59.57.000 W002.00.18.000
ORTAV N059.30.00.000 W010.00.00.000
ORVAL N049.02.02.000 W001.49.31.000
ORVIK N059.38.18.000 E000.40.09.000
OSBIR N050.53.05.470 W002.24.02.560
OSBOX N056.48.23.000 W012.48.06.000
OSKOT N052.20.30.000 W002.03.30.000
OSLEL N057.28.58.000 W001.31.58.000
OSLOR N053.25.05.000 W003.43.03.000
OSMEG N055.08.26.000 W004.06.03.000
OSNAP N053.25.12.220 W001.54.21.400
OSPOL N050.09.00.000 W000.11.07.840
OTBAP N052.06.12.000 E001.38.00.000
OTBED N053.17.17.000 E000.01.55.000
OTBOT N050.36.18.880 W003.41.13.660
OTBUN N055.16.50.000 W002.26.00.000
OTMIS N049.31.30.730 W002.20.30.070
OTSID N051.10.23.000 W000.13.51.000
OVDAN N057.53.20.660 E000.18.18.060
OVDOV N052.18.59.000 W001.35.45.000
OYSTA N049.06.00.000 W002.31.24.000
PAVLO N050.56.05.000 W005.53.44.000
PEDIG N052.44.48.000 W001.43.10.000
PELET N054.39.12.000 E003.25.52.000
PELOM N049.26.42.500 W002.12.32.690
PEMAK N049.26.56.000 W006.13.05.000
PEMOB N052.08.38.000 W005.09.41.000
PENIL N053.36.57.000 W003.39.49.000
PENUN N057.06.35.650 E004.50.10.790
PENUX N051.06.32.000 E000.34.12.000
PEPIN N059.59.31.000 E000.00.54.000
PEPIS N051.11.48.000 W001.14.37.000
PEPOD N054.16.16.000 W005.34.09.000
PEPUL N052.16.03.000 W001.53.14.000
PERCH N049.07.45.000 W001.56.14.000
PERUP N051.42.34.000 W002.56.32.000
PETIL N055.56.20.000 E005.00.00.000
PETOX N057.33.33.000 W001.49.02.000
PETUK N053.14.36.000 W004.21.14.000
PEVOL N050.46.15.340 E000.52.50.800
PHILI N049.28.31.000 W007.01.17.000
PIBUG N051.24.30.070 W001.00.00.270
PIGOT N052.29.43.000 W001.04.07.000
PIKEY N049.28.37.000 W002.13.32.000
PIKIL N056.00.00.000 W015.00.00.000
PIKOD N049.24.38.000 W005.15.59.000
PILIP N050.20.03.000 W001.00.26.000
PIPAR N056.07.00.000 W003.12.06.000
PIPEM N058.09.23.000 W003.44.19.000
PIPIN N052.36.36.000 W000.56.30.000
PIXAM N052.04.47.000 E001.56.50.000
PIXUP N052.01.51.000 W001.06.40.000
PLYMO N050.20.45.000 W004.37.37.000
POMAX N051.31.38.000 W002.04.52.000
POMPI N050.45.48.000 W000.57.15.000
POTON N052.05.04.000 W000.25.38.000
RAMID N052.57.28.000 E002.30.00.000
RAMOX N053.39.37.000 W004.50.22.000
RAPIX N051.26.38.000 E002.00.00.000
RAPUM N054.55.18.000 W001.52.58.000
RATKA N049.30.00.000 W008.00.00.000
RATLO N051.59.29.000 E001.40.55.000
RATPU N056.55.32.000 W002.06.59.000
RATSU N061.00.00.000 W010.00.00.000
RAVDI N059.29.57.000 W001.22.42.000
RAVLO N052.55.01.000 E003.08.54.000
REDFA N052.06.53.000 E002.29.17.000
REGHI N048.00.00.000 W008.00.00.000
REKLO N051.49.46.460 W001.52.43.990
REKNA N056.10.29.000 E003.30.00.000
REMSI N053.57.37.000 W003.49.32.000
RESNO N055.00.00.000 W015.00.00.000
RETSI N052.30.42.000 W002.52.33.000
REXAM N053.04.00.000 W003.09.37.000
RIBEL N054.00.58.000 W002.17.23.000
RIBGO N050.52.20.980 E000.40.21.010
RIDLY N051.38.52.000 E000.54.00.000
RIGDI N050.16.15.000 W005.59.29.000
RIGVA N053.28.09.000 W003.18.58.000
RIGVU N058.47.36.000 E002.09.18.000
RIKUD N054.29.40.000 W001.02.08.000
RILES N051.56.55.000 W002.55.22.000
RIMBU N051.42.22.000 E002.09.43.000
RIMTO N053.43.03.000 W001.25.59.000
RINGA N054.23.54.000 W005.34.16.000
RINIS N051.54.30.000 E002.19.21.000
RINTI N051.01.58.000 E001.36.56.000
RIPIL N050.43.05.440 W000.22.13.810
RIPNO N054.56.32.000 W003.44.15.000
RISDU N057.36.31.000 W001.48.24.000
RISIN N051.41.39.000 W001.26.28.000
RISLA N053.01.51.000 W002.53.12.000
RITSI N055.42.09.000 W001.39.25.000
RIVAK N046.00.00.000 W008.00.00.000
RIVOT N056.24.29.000 E000.46.37.000
ROBBO N055.53.23.000 W004.54.37.000
ROBEM N055.27.33.000 W001.01.14.000
ROBIN N052.57.48.000 W001.17.45.000
ROBLU N053.40.21.670 W002.43.07.360
ROBVA N052.48.04.000 W002.53.34.000
RODEL N050.30.00.000 W015.00.00.000
RODNI N051.42.57.000 W000.51.42.000
RODOL N053.14.17.000 W001.51.43.000
RODSI N054.47.56.000 E002.53.35.000
ROGAG N053.14.06.000 W000.17.45.000
ROGBI N052.17.47.000 W001.20.06.000
ROGTO N049.40.45.700 W002.26.21.840
ROKAN N053.39.48.000 E003.11.20.000
ROKSI N050.30.13.000 W002.12.51.000
ROKUP N053.01.02.000 W001.30.57.000
ROLEX N053.25.42.000 W003.58.04.000
ROLUM N054.18.20.000 E003.18.31.000
ROMPA N054.00.00.000 E003.35.32.000
ROMTI N051.02.06.000 E000.55.20.000
RONAR N057.31.50.000 W005.39.19.000
ROPAL N055.08.17.000 E003.56.43.000
ROPMU N052.06.14.000 E000.29.17.000
ROSUN N053.40.08.000 W002.20.57.000
ROTEV N054.01.44.000 W006.03.58.000
ROTLU N051.18.30.710 W002.47.02.500
ROTNO N050.51.26.000 E000.46.41.000
ROVNI N053.53.13.000 E000.39.01.000
ROVUS N051.15.07.000 W000.50.52.000
ROWAN N051.45.09.000 E000.14.57.000
ROXAT N053.24.49.000 E003.00.00.000
RUBEX N055.19.12.000 W006.56.07.000
RUBMI N050.16.46.000 W002.19.43.000
RUDMO N050.46.40.000 W001.01.27.000
RUGER N053.28.58.000 W003.26.52.000
RUGID N057.22.09.000 W004.53.55.000
RURIS N052.24.04.000 E002.16.17.000
RUTOK N049.30.39.360 W002.52.20.990
SABER N051.42.14.000 E000.56.58.000
SALCO N049.44.14.000 W003.31.46.000
SAMON N051.19.21.000 W007.25.04.000
SANBA N053.08.22.000 W002.20.03.000
SANDY N051.03.51.000 E001.04.03.000
SAPCO N052.32.25.000 W001.21.25.000
SAPOT N059.15.40.000 W002.22.51.000
SENLO N049.05.00.000 W001.10.42.000
SEPAL N047.00.00.000 W008.45.00.000
SETEL N054.00.45.000 W002.26.09.000
SHAPP N054.30.00.000 W002.37.38.000
SHARK N049.11.23.000 W002.25.46.000
SHRUB N057.18.01.000 W001.48.55.000
SILOK N059.46.12.000 W001.29.00.000
SILVA N051.50.51.000 W001.00.19.000
SIREN N051.34.15.000 W001.52.29.000
SIRGO N051.37.46.000 E000.38.47.000
SISRI N050.46.00.110 W003.45.03.810
SITET N050.06.00.000 E000.00.00.000
SIVBU N053.27.55.000 W000.34.44.000
SIVDA N052.21.22.000 E000.01.47.000
SIVIR N046.00.00.000 W008.45.00.000
SKERY N050.00.00.000 W003.10.23.000
SKESO N049.49.29.000 W003.02.03.000
SKINA N052.48.17.000 W001.46.23.000
SLANY N052.09.31.000 W005.50.32.000
SLYDA N054.12.04.000 W005.05.15.000
SMOKI N057.46.37.000 W002.35.56.000
SOBDO N050.04.26.000 W007.07.00.000
SODKI N058.47.51.000 W003.37.53.000
SOMAX N050.00.00.000 W015.00.00.000
SOMOT N051.17.33.000 W002.59.53.000
SOMVA N052.18.26.000 E002.38.38.000
SONDO N052.05.06.000 E001.48.42.000
SONEX N053.29.53.000 W002.10.21.000
SONOG N052.06.20.000 E002.16.10.000
SONOL N053.00.05.000 E002.30.00.000
SOPAX N053.38.49.000 W004.27.08.000
SOPEK N053.06.32.000 E002.30.00.000
SOPIT N051.57.30.000 W001.06.26.000
SOPTO N055.18.20.000 E005.00.00.000
SORDI N051.10.13.570 E000.57.07.640
SOSAB N051.47.36.450 W002.28.23.060
SOSIM N053.48.56.000 W004.30.30.000
SOTUN N054.10.36.000 E003.37.37.000
SOVAT N050.46.46.000 E001.28.00.000
SOVED N056.00.00.000 W014.00.00.000
SOXON N058.58.06.000 W003.52.22.000
SPEAR N051.34.34.000 E000.42.01.000
SPIKE N057.32.26.000 W001.39.53.000
STAFA N052.51.41.000 W002.14.35.000
STIRA N056.08.02.000 W003.50.01.000
STOAT N052.01.33.000 W000.01.15.000
SUBIP N050.26.44.000 E000.53.06.000
SUBUK N054.22.48.000 W003.17.11.000
SUMIN N055.19.46.000 W004.03.18.000
SUMUM N051.38.14.000 E002.06.28.000
SUNAV N051.15.36.900 E000.11.39.800
SUNOT N057.00.00.000 W015.00.00.000
SUPAP N049.26.02.000 W005.49.22.000
SUPEL N053.13.40.000 E000.35.28.000
SUPIT N057.19.57.000 W007.05.06.000
SURAT N055.54.56.000 E003.30.00.000
SUSIS N055.36.17.000 W000.21.02.000
SUSIX N050.37.00.000 W000.58.03.000
SWANY N051.33.34.000 W004.07.48.000
TABEN N051.21.49.000 W001.10.22.000
TABIS N052.00.32.000 E000.26.44.000
TABIT N055.47.58.000 W005.20.00.000
TABLY N053.16.19.000 W002.27.02.000
TADAL N053.35.14.000 W003.01.35.000
TADEX N054.51.24.000 W008.14.01.000
TAGOX N051.14.34.000 W000.38.06.000
TAKAS N049.00.00.000 W008.00.00.000
TALGA N051.57.30.000 W003.14.44.000
TALIG N049.30.59.000 W005.48.04.000
TAMEL N048.43.43.000 W010.29.50.000
TANET N051.26.58.000 E000.55.32.000
TARTN N055.43.02.000 W003.08.19.000
TAWNY N051.38.46.000 E000.09.06.000
TEBRA N051.29.20.300 E001.36.43.000
TEDSA N052.03.03.000 E001.07.39.000
TELBA N052.39.52.000 W002.19.07.000
TENDO N054.01.44.000 E000.14.47.000
TENSO N053.36.02.000 W002.12.27.000
TERKO N051.37.32.000 E000.44.48.000
TESDO N050.07.26.000 W007.07.00.000
TEVSI N051.21.00.750 W001.03.01.260
THRED N050.29.55.000 W001.39.50.000
TIDMA N049.18.48.910 W001.56.10.210
TIGER N051.04.02.000 E000.26.22.000
TILNI N054.32.51.000 W001.51.18.000
TIMBA N050.56.43.990 E000.15.42.250
TIMPO N052.33.32.000 W001.09.50.000
TINAC N056.15.03.000 E005.00.00.000
TINAN N050.40.00.000 W003.26.54.000
TINDI N054.02.14.000 E003.15.29.000
TINRA N051.39.26.000 E001.42.45.000
TIPAN N054.35.54.000 E004.23.56.000
TIPGO N052.22.14.590 E000.17.07.300
TIPIL N053.10.00.000 W001.44.23.000
TIPOD N053.26.08.000 W003.17.05.000
TIPTA N054.48.13.000 W001.36.41.000
TIRIK N059.32.19.000 W001.12.14.000
TIVER N050.48.33.000 W003.25.26.000
TIVLU N046.30.00.000 W008.00.00.000
TIXON N049.08.54.200 W001.54.14.900
TOBID N052.13.00.000 W001.27.59.000
TOBIX N051.36.17.000 E001.16.51.000
TOBMO N056.45.38.000 W006.28.11.000
TOLSA N053.07.37.000 E003.06.29.000
TOMMO N051.18.52.000 W000.21.46.000
TOMPO N050.42.43.000 W003.33.19.000
TOPPA N053.24.09.000 E003.33.41.000
TOPRO N051.54.42.000 W003.14.57.000
TORGO N053.07.57.000 W003.15.59.000
TORVI N049.38.50.940 W002.03.54.570
TOTRI N051.46.30.000 E000.11.48.000
TOTVO N052.01.18.820 E000.26.27.790
TOVEL N053.50.18.810 W002.41.41.420
TRIPO N051.42.47.000 E001.04.58.000
TROUT N057.30.36.000 W001.24.54.000
TUBSU N052.04.06.000 W001.40.28.000
TULTA N048.34.37.000 W008.00.00.000
TUMTI N053.04.40.000 W001.36.15.000
TUMVA N051.08.56.470 E001.03.08.670
TUNBY N051.10.08.000 E000.19.29.000
TUNEL N051.26.35.000 E000.13.52.000
TUNIT N049.22.53.000 W003.00.00.000
TUNSO N055.06.40.000 W004.57.41.000
TUNUP N053.55.48.000 W003.11.03.000
TUPEM N053.50.17.000 W003.28.55.000
TURLU N050.04.35.000 W008.00.00.000
TUVDO N053.35.40.000 W003.36.44.000
TUXOS N055.58.24.000 W007.31.35.000
TWEED N055.40.37.000 W003.16.38.000
TYSTI N059.22.24.000 W001.14.40.000
UGBUD N051.47.14.000 W003.39.10.000
UGNUS N051.42.32.000 W002.08.23.000
ULLAP N057.54.00.000 W005.10.09.000
UMBAG N052.20.52.000 E000.46.57.000
UMBEL N054.01.44.000 W000.29.07.000
UMBUR N051.27.33.000 E000.07.08.000
UMLER N047.30.00.000 W008.45.00.000
UMOLO N052.08.03.000 W003.13.57.000
UMOXA N047.30.00.000 W008.00.00.000
UMTUM N051.12.27.000 E001.01.03.000
UMUMU N050.53.42.330 W002.54.41.680
UNBIG N051.44.27.000 W003.35.02.000
UNDUG N050.47.24.000 E000.25.30.000
UNDUX N053.38.30.000 W004.18.39.000
UNGAP N052.21.29.000 W001.23.39.000
UNIGO N053.33.40.000 W001.33.39.000
UNURO N055.21.11.000 W003.21.02.000
UPDUK N052.34.27.000 W000.56.30.000
UPGAS N055.14.41.000 E005.00.00.000
UPGET N056.39.35.000 W002.00.50.000
UPTON N053.35.13.000 W001.18.03.000
UTUXA N053.00.30.450 W002.13.12.520
UVAVU N054.25.00.000 W001.53.46.000
VABIK N051.14.47.000 E002.00.00.000
VABKA N053.18.08.000 W002.44.10.000
VADNO N057.27.11.000 W003.37.38.000
VALBO N055.07.43.000 E005.00.00.000
VAMEB N054.00.10.000 W002.48.32.000
VAMLA N060.00.00.000 W004.00.00.000
VANIN N053.59.07.000 W004.02.21.000
VAPID N051.15.14.000 W001.02.42.000
VATON N051.26.04.000 W000.20.56.000
VATRY N052.33.16.000 W005.30.00.000
VAXIT N056.32.15.000 E005.00.00.000
VEPEB N052.19.34.000 W005.25.55.000
VEGAR N053.02.34.000 W001.58.23.000
VEGUS N053.24.01.000 W000.21.11.000
VELAG N052.24.36.000 W001.00.50.000
VENAS N054.18.20.000 E003.39.08.000
VENER N054.30.00.000 W015.00.00.000
VEXEN N050.08.22.000 W001.49.34.000
VIDOK N052.24.39.000 W002.02.31.000
WAFFU N050.34.57.000 E000.20.59.000
WATFO N051.40.33.000 W000.20.54.000
WEALD N051.19.51.000 E000.02.05.000
WELIN N052.14.50.000 W000.51.08.000
WESUL N051.40.15.000 E000.29.09.000
WILLO N050.59.06.000 W000.11.30.000
WIZAD N051.07.00.000 E000.57.11.000
WOBUN N052.01.10.000 W000.44.00.000
WOTAN N051.37.26.000 W002.20.06.000
XAMAB N050.12.16.000 E000.15.53.000
XAMAN N051.47.05.000 E002.13.27.000
XAVAP N049.14.02.000 W006.08.35.000
XETUN N055.48.50.000 W004.32.29.000
XEXUS N055.55.26.000 W004.20.10.000
XIDIL N050.21.06.000 E000.38.29.000
XIGAR N051.48.50.000 E000.15.46.000
XOBRO N053.28.17.000 W002.25.18.000
XUMAT N053.27.57.000 W002.28.23.000