COPX:*:*:BIG:EGLL:27R:London TC BIG:LLSTH_W:*:9000:BIG
COPX:*:*:BIG:EGLL:27L:London TC BIG:LLSTH_W:*:9000:BIG
COPX:*:*:BIG:EGLL:09R:London TC BIG:LLSTH_E:*:9000:BIG
COPX:*:*:BIG:EGLL:09L:London TC BIG:LLSTH_E:*:9000:BIG