EGNT_R_APP:Newcastle Radar:124.370:NTR:T:EGNT:APP:-:-:3730:3766:N055.02.15.000:W001.41.30.000::
EGNT_F_APP:Newcastle Director:125.820:NTF:T:EGNT:APP:-:-:3730:3766:N055.02.15.000:W001.41.30.000::
EGNT_TWR:Newcastle Tower:119.700:NTT:T:EGNT:TWR:-:-:3730:3766:N055.02.15.000:W001.41.30.000::
EGNT_ATIS:Newcastle ATIS:118.370:NTI:T:EGNT:ATIS:-:-::::::