SECTORLINE:Heb_BIRD
DISPLAY:Hebrides:Hebrides:BIRD
COORD:N061.00.00.000:W007.00.00.000
COORD:N061.00.00.000:W005.30.00.000

SECTORLINE:Heb_BIRD Del Inner
DISPLAY:Hebrides:Hebrides:BIRD
COORD:N060.30.00.000:W010.00.00.000
COORD:N061.00.00.000:W007.00.00.000

SECTORLINE:Heb_BIRD Del EGGX
COORD:N060.30.00.000:W010.00.00.000
COORD:N061.00.00.000:W009.59.60.000

SECTORLINE:Heb_BIRD Del Outer
COORD:N061.00.00.000:W009.59.60.000
COORD:N061.00.00.000:W007.00.00.000

SECTORLINE:Mor_BIRD
DISPLAY:Moray:Moray:BIRD
COORD:N061.00.00.000:W005.30.00.000
COORD:N061.00.00.000:W000.00.00.000

SECTORLINE:Mor_ENSV
DISPLAY:Moray:Moray:ENSV
COORD:N061.00.00.000:E000.00.00.000
COORD:N059.59.31.000:E000.00.54.000
COORD:N059.38.18.000:E000.40.09.000
COORD:N059.02.09.000:E001.44.20.000
COORD:N058.47.36.000:E002.09.18.000
COORD:N058.23.24.000:E002.49.44.000
COORD:N057.54.27.000:E003.36.30.000
COORD:N057.34.12.000:E004.08.13.000
COORD:N057.20.16.312:E004.29.23.315

SECTORLINE:Mor_EKDK DB-660
DISPLAY:Moray:Moray:EKDK
COORD:N057.20.16.312:E004.29.23.315
COORD:N056.36.04.000:E003.36.32.000

SECTORLINE:Mor_EKDK DB-195 Border
DISPLAY:Moray:Moray:EKDK
COORD:N057.20.16.312:E004.29.23.315
COORD:N057.00.00.000:E005.00.00.000
COORD:N056.25.02.000:E005.00.00.000

SECTORLINE:Mor_Tyne DK Del
DISPLAY:Moray:Moray:Tyne
DISPLAY:Tyne:Tyne:Moray
COORD:N056.36.04.000:E003.36.32.000
COORD:N056.25.02.000:E005.00.00.000

SECTORLINE:Mor_Mon
DISPLAY:Moray:Moray:Montrose
DISPLAY:Montrose:Montrose:Moray
COORD:N057.23.37.177:W004.14.06.008
COORD:N057.09.52.000:W001.53.47.000

SECTORLINE:Mor_Tyne
DISPLAY:Moray:Moray:Tyne
DISPLAY:Tyne:Tyne:Moray
COORD:N057.09.52.000:W001.53.47.000
COORD:N056.36.04.000:E003.36.32.000

SECTORLINE:Mor_Tay
DISPLAY:Moray:Moray:Montrose
DISPLAY:Montrose:Montrose:Moray
COORD:N057.21.31.000:W003.52.13.000
COORD:N057.11.45.000:W002.18.15.000
COORD:N057.09.52.000:W001.53.47.000

SECTORLINE:Heb_EGGX
DISPLAY:Hebrides:Hebrides:EGGX
COORD:N060.30.00.000:W010.00.00.000
COORD:N059.20.00.000:W010.00.00.000

SECTORLINE:Heb_Mor 1
DISPLAY:Hebrides:Hebrides:Moray
DISPLAY:Moray:Moray:Hebrides
COORD:N061.00.00.000:W005.30.00.000
COORD:N059.16.38.000:W004.30.00.000
COORD:N058.01.40.821:W004.16.58.594

SECTORLINE:Heb_Mor Low
DISPLAY:Hebrides:Hebrides:Moray
DISPLAY:Moray:Moray:Hebrides
COORD:N058.01.40.821:W004.16.58.594
COORD:N057.54.46.000:W004.32.04.000
COORD:N057.45.12.000:W004.23.48.121
COORD:N057.31.47.000:W004.12.03.000

SECTORLINE:Mor Low Tri
COORD:N058.01.40.821:W004.16.58.594
COORD:N057.31.47.000:W004.12.03.000

SECTORLINE:Heb_Mor 2
DISPLAY:Hebrides:Hebrides:Moray
DISPLAY:Moray:Moray:Hebrides
COORD:N057.31.47.000:W004.12.03.000
COORD:N057.23.37.177:W004.14.06.008

SECTORLINE:Tyne_Hum
DISPLAY:Tyne:Tyne:Humber
DISPLAY:Humber:Humber:Tyne
COORD:N055.05.16.000:W001.00.20.000
COORD:N055.23.06.000:E000.22.28.000
COORD:N055.25.45.686:E003.45.48.541

SECTORLINE:Tyne_EKDK DB-660
DISPLAY:Tyne:Tyne:EKDK
COORD:N056.36.04.000:E003.36.32.000
COORD:N056.30.35.000:E003.29.60.000
COORD:N055.51.16.000:E003.29.60.000
COORD:N055.25.45.686:E003.45.48.541

SECTORLINE:Tyne_EKDK DB-195 Border
DISPLAY:Tyne:Tyne:EKDK
COORD:N056.25.02.000:E005.00.00.000
COORD:N055.30.00.000:E004.59.60.000

SECTORLINE:Tyne_Hum DK Del
DISPLAY:Tyne:Tyne:Humber
DISPLAY:Humber:Humber:Tyne
COORD:N055.30.00.000:E004.59.60.000
COORD:N055.25.45.686:E003.45.48.541

SECTORLINE:Tyne_Montrose
DISPLAY:Tyne:Tyne:Montrose
DISPLAY:Montrose:Tyne:Tyne
COORD:N057.09.52.000:W001.53.47.000
COORD:N055.05.16.000:W001.00.20.000

SECTORLINE:Hum_EKDK DB-660
DISPLAY:Humber:Humber:EKDK
COORD:N055.25.45.686:E003.45.48.541
COORD:N055.02.51.000:E004.00.01.000
COORD:N054.38.43.000:E004.20.00.000
COORD:N054.29.60.000:E004.32.09.000

SECTORLINE:Hum_EKDK DB-195 Border
DISPLAY:Humber:Humber:EKDK
COORD:N055.30.00.000:E004.59.60.000
COORD:N055.00.00.000:E004.59.60.000

SECTORLINE:Hum_EHAA DB-195 Border
DISPLAY:Humber:Humber:EHAA
COORD:N055.00.00.000:E004.59.60.000
COORD:N054.29.60.000:E004.32.09.000

SECTORLINE:Humber_EHAM
DISPLAY:Humber:Humber:EHAA
COORD:N054.29.60.000:E004.32.09.000
COORD:N053.10.29.000:E003.21.58.000

SECTORLINE:SELN3
DISPLAY:Montrose:Montrose:East
DISPLAY:Montrose:Montrose:London S10
DISPLAY:Montrose:Montrose:London S11
DISPLAY:East:East:Montrose
DISPLAY:London S10:London S10:Montrose
DISPLAY:London S11:London S11:Montrose
COORD:N054.01.41.000:E000.27.19.000
COORD:N053.29.38.000:E001.25.19.000
COORD:N053.23.02.000:E002.40.06.000
COORD:N053.18.13.000:E002.44.00.000

SECTORLINE:Hum_Mon
DISPLAY:Humber:Humber:Montrose
DISPLAY:Montrose:Montrose:Humber
COORD:N055.05.16.000:W001.00.20.000
COORD:N054.01.41.000:E000.27.19.000

SECTORLINE:SELN1
DISPLAY:East:East:Montrose
DISPLAY:Montrose:Montrose:East
DISPLAY:London S10:London S10:Montrose
DISPLAY:London S11:London S10:Montrose
DISPLAY:Montrose:Montrose:London S10
DISPLAY:Montrose:Montrose:London S11
COORD:N054.01.47.000:W001.35.15.000
COORD:N054.01.45.000:E000.06.02.000

SECTORLINE:SELN2
DISPLAY:London S10:London S10:Montrose
DISPLAY:London S11:London S10:Montrose
DISPLAY:Montrose:Montrose:London S10
DISPLAY:Montrose:Montrose:London S11
COORD:N054.01.45.000:E000.06.02.000
COORD:N054.01.41.000:E000.27.19.000

SECTORLINE:SELN4
DISPLAY:Humber:Humber:EHAA
DISPLAY:Humber:Humber:London S10
DISPLAY:Humber:Humber:London S11
DISPLAY:London S10:London S10:EHAA
DISPLAY:London S10:London S10:Humber
DISPLAY:London S11:London S11:EHAA
DISPLAY:London S11:London S11:Humber
COORD:N053.10.29.000:E003.21.58.000
COORD:N053.14.40.000:E003.11.02.000
COORD:N053.18.13.000:E002.44.00.000

SECTORLINE:DCS-N_DCS-S Split
COORD:N055.00.00.000:W002.07.29.000
COORD:N055.00.00.000:W003.28.11.000
COORD:N055.31.21.000:W003.58.09.000
COORD:N055.47.00.000:W005.30.41.000

SECTORLINE:DCS-S_RatW
DISPLAY:Deancross:Deancross:Rathlin West
DISPLAY:Rathlin West:Rathlin West:Deancross
;Also display to Central low level
COORD:N055.34.19.000:W005.41.33.000
COORD:N055.09.48.000:W005.04.41.000

SECTORLINE:DCS-S_RatE
DISPLAY:Deancross:Deancross:Rathlin East
DISPLAY:Rathlin East:Rathlin East:Deancross
COORD:N055.09.48.000:W005.04.41.000
COORD:N055.05.40.000:W004.58.34.000
COORD:N054.20.24.000:W003.33.58.000

SECTORLINE:SWLN3
DISPLAY:Deancross:Deancross:Rathlin East
DISPLAY:Deancross:Deancross:London S3
DISPLAY:Deancross:Deancross:London S4
DISPLAY:Rathlin East:Rathlin East:Deancross
DISPLAY:Rathlin East:Rathlin East:London S3
DISPLAY:Rathlin East:Rathlin East:London S4
DISPLAY:London S3:London S3:Deancross
DISPLAY:London S3:London S3:Rathlin East
DISPLAY:London S4:London S4:Deancross
DISPLAY:London S4:London S4:Rathlin East
COORD:N054.20.24.000:W003.33.58.000
COORD:N054.15.00.000:W003.33.05.000

SECTORLINE:DCS-S 255-285
DISPLAY:Deancross:Deancross:London S3
DISPLAY:Deancross:Deancross:London S4
COORD:N054.20.24.000:W003.33.58.000
COORD:N054.30.00.000:W003.35.33.000
COORD:N054.30.07.000:W002.52.45.000
COORD:N054.15.00.000:W002.39.48.000

SECTORLINE:Cen_RatW
DISPLAY:Central:Central:Rathlin West
DISPLAY:Rathlin West:Rathlin West:Central
COORD:N056.35.06.000:W010.00.00.000
COORD:N055.34.19.000:W005.41.33.000

SECTORLINE:Cen_Heb
DISPLAY:Central:Central:Hebrides
DISPLAY:Hebrides:Hebrides:Central
COORD:N059.20.00.000:W010.00.00.000
COORD:N059.20.00.000:W010.00.00.000
COORD:N058.53.14.000:W008.15.58.000
COORD:N058.01.37.000:W006.29.19.000
COORD:N057.15.04.000:W005.36.33.000

SECTORLINE:Cen_Mon
DISPLAY:Central:Central:Montrose
DISPLAY:Montrose:Montrose:Central
COORD:N057.15.04.000:W005.36.33.000
COORD:N056.15.60.000:W005.05.20.000

SECTORLINE:Cen_DCS-N
DISPLAY:Central:Central:Deancross
DISPLAY:Deancross:Deancross:Central
COORD:N056.15.60.000:W005.05.20.000
COORD:N055.46.60.000:W005.30.41.000

SECTORLINE:Cen_DCS-S
DISPLAY:Central:Central:Deancross
DISPLAY:Deancross:Deancross:Central
COORD:N055.46.60.000:W005.30.41.000
COORD:N055.34.19.000:W005.41.33.000

SECTORLINE:Wes-Cen_EGGX
DISPLAY:Central:Central:EGGX
COORD:N059.20.00.000:W010.00.00.000
COORD:N057.00.00.000:W010.00.08.000

SECTORLINE:Cen_EISN
DISPLAY:Central:Central:EISN5
COORD:N057.00.00.000:W010.00.08.000
COORD:N056.35.06.000:W010.00.00.000

SECTORLINE:RatW_EISN 1
DISPLAY:Rathlin West:Rathlin West:EISN5
COORD:N056.35.06.000:W010.00.00.000
COORD:N054.33.60.000:W010.00.00.000
COORD:N054.38.58.000:W009.33.19.000

SECTORLINE:RatW_EISN Del
DISPLAY:Rathlin West:Rathlin West:EISN2
COORD:N054.38.58.000:W009.33.19.000
COORD:N054.38.58.000:W009.33.20.000
COORD:N054.44.59.000:W009.00.00.000
COORD:N055.19.60.000:W008.15.00.000
COORD:N055.24.59.000:W007.20.00.000
COORD:N055.20.00.000:W006.55.00.000
COORD:N054.25.00.000:W008.10.00.000

SECTORLINE:RatW_EISN Del FIR
DISPLAY:Rathlin West:Rathlin West:EISN2
COORD:N054.38.58.000:W009.33.19.000
COORD:N054.25.00.000:W008.10.00.000

SECTORLINE:RatW_EISN 2
DISPLAY:Rathlin West:Rathlin West:EISN2
COORD:N054.03.16.000:W006.12.12.000
COORD:N054.25.00.000:W008.10.00.000

SECTORLINE:RatW_RatE
DISPLAY:Rathlin West:Rathlin West:Rathlin East
DISPLAY:Rathlin East:Rathlin East:Rathlin West
COORD:N055.09.48.000:W005.04.41.000
COORD:N054.55.48.000:W005.16.49.810
COORD:N054.38.58.000:W005.42.23.400
COORD:N054.03.16.000:W006.12.12.000

SECTORLINE:Rat-E_EISN 1
DISPLAY:Rathlin East:Rathlin East:EISN2
COORD:N054.03.16.000:W006.12.12.000
COORD:N053.55.00.000:W005.30.00.000

SECTORLINE:Rat-E_EISN 2
DISPLAY:Rathlin East:Rathlin East:EISN2
COORD:N053.55.00.000:W005.30.00.000
COORD:N053.48.16.000:W005.30.00.000

SECTORLINE:SWLN1
DISPLAY:Rathlin East:Rathlin East:London S4
DISPLAY:Rathlin East:Rathlin East:London S7
DISPLAY:London S4:London S4:Rathlin East
DISPLAY:London S7:London S7:Rathlin East
COORD:N053.48.16.000:W005.30.00.000
COORD:N053.46.17.000:W004.31.12.000
COORD:N053.54.19.000:W004.21.51.000
COORD:N053.54.20.000:W004.07.37.000
COORD:N053.41.49.000:W003.36.49.000
COORD:N053.41.25.000:W003.27.34.000

SECTORLINE:SWLN2
DISPLAY:Isle of Man:Isle of Man:Rathlin East
DISPLAY:Rathlin East:Rathlin East:Isle of Man
DISPLAY:Sector 29:Sector 29:Rathlin East
DISPLAY:Rathlin East:Rathlin East:Sector 29
DISPLAY:London S3:London S3:Rathlin East
DISPLAY:Rathlin East:Rathlin East:London S3
DISPLAY:Isle of Man:Isle of Man:London S3
DISPLAY:London S3:London S3:Isle of Man
DISPLAY:Rathlin East:Rathlin East:London S4
DISPLAY:London S4:London S4:Rathlin East
COORD:N054.15.00.000:W003.33.05.000
COORD:N053.41.25.000:W003.27.34.000

SECTORLINE:SWLN4
DISPLAY:Deancross:Deancross:London S3
DISPLAY:Deancross:Deancross:London S4
DISPLAY:London S3:London S3:Deancross
DISPLAY:London S4:London S4:Deancross
COORD:N054.20.24.000:W003.33.58.000
COORD:N054.30.00.000:W003.35.33.000
COORD:N054.30.07.000:W002.52.45.000
COORD:N054.14.59.000:W002.39.48.000

SECTORLINE:SWLN5
DISPLAY:Deancross:Deancross:London S3
DISPLAY:Deancross:Deancross:London S4
DISPLAY:London S3:London S3:Deancross
DISPLAY:London S4:London S4:Deancross
COORD:N054.14.59.000:W002.39.48.000
COORD:N054.00.43.000:W002.27.43.000
COORD:N054.01.47.000:W001.35.15.000

SECTORLINE:SWLN6
DISPLAY:Deancross:Deancross:London S3
DISPLAY:Deancross:Deancross:London S4
DISPLAY:Deancross:Deancross:Sector 29
DISPLAY:London S3:London S3:Deancross
DISPLAY:London S4:London S4:Deancross
DISPLAY:Sector 29:Sector 29:Deancross
COORD:N054.15.00.000:W003.33.05.000
COORD:N054.14.59.000:W002.39.48.000

SECTORLINE:DCS-S 285-660 Inner 1
DISPLAY:Deancross:Deancross:Sector 29
DISPLAY:Sector 29:Deancross:Deancross
COORD:N054.14.59.000:W002.39.48.000
COORD:N054.14.60.000:W002.10.00.000
COORD:N054.15.19.000:W002.08.55.000

SECTORLINE:DCS-S 285-660 Inner 2
DISPLAY:Deancross:Deancross:East
DISPLAY:East:East:Deancross
COORD:N054.15.19.000:W002.08.55.000
COORD:N054.34.05.304:W002.03.03.861

SECTORLINE:DCS-S_Mon Tri B
DISPLAY:Deancross:Deancross:Montrose
DISPLAY:Montrose:Montrose:Deancross
DISPLAY:Deancross:Deancross:East
DISPLAY:East:East:Deancross
COORD:N054.34.05.304:W002.03.03.861
COORD:N054.33.22.908:W001.56.30.643

SECTORLINE:DCS-S_TILNI Corridor Tri
DISPLAY:Deancross:Deancross:Montrose
DISPLAY:Montrose:Montrose:Deancross
DISPLAY:Deancross:Deancross:East
DISPLAY:East:East:Deancross
COORD:N054.42.48.193:W002.00.23.665
COORD:N054.34.05.304:W002.03.03.861

SECTORLINE:DCS-S 285_Mon Area B
DISPLAY:Deancross:Deancross:Montrose
DISPLAY:Montrose:Montrose:Deancross
DISPLAY:Deancross:Deancross:East
DISPLAY:East:East:Deancross
COORD:N054.33.22.908:W001.56.30.643
COORD:N054.14.60.000:W001.48.56.000

SECTORLINE:DCS-S 285_Mon Area C
DISPLAY:Deancross:Deancross:Montrose
DISPLAY:Montrose:Montrose:Deancross
DISPLAY:Deancross:Deancross:East
DISPLAY:East:East:Deancross
COORD:N054.33.22.908:W001.56.30.643
COORD:N054.42.48.193:W002.00.23.665

SECTORLINE:DCS-S_Mon
DISPLAY:Deancross:Deancross:Montrose
DISPLAY:Montrose:Montrose:Deancross
COORD:N054.42.48.193:W002.00.23.665
COORD:N054.57.49.163:W002.06.21.435

SECTORLINE:DCS-S 285_Mon
DISPLAY:Deancross:Deancross:Montrose
DISPLAY:Montrose:Montrose:Deancross
COORD:N054.14.60.000:W001.48.56.000
COORD:N054.01.47.000:W001.35.15.000

SECTORLINE:Mon_Heb
DISPLAY:Montrose:Montrose:Hebrides
DISPLAY:Hebrides:Hebrides:Montrose
COORD:N057.23.37.177:W004.14.06.008
COORD:N057.14.40.000:W004.28.16.000
COORD:N057.15.04.000:W005.36.33.000

SECTORLINE:Mon_Wes-Cen 1
DISPLAY:Montrose:Montrose:Central
DISPLAY:Central:Montrose:Montrose
DISPLAY:Deancross:Deancross:Montrose
DISPLAY:Montrose:Montrose:Deancross
COORD:N056.15.60.000:W005.05.20.000
COORD:N056.16.00.647:W004.08.55.971

SECTORLINE:Mon_Wes-Cen 2
DISPLAY:Montrose:Montrose:Central
DISPLAY:Central:Montrose:Montrose
COORD:N056.16.00.647:W004.08.55.971
COORD:N056.13.60.000:W004.09.26.000

SECTORLINE:Mon_DCS-N Area E1 Inner
DISPLAY:Montrose:Montrose:Deancross
DISPLAY:Deancross:Deancross:Montrose
COORD:N056.16.00.647:W004.08.55.971
COORD:N056.15.54.200:W003.29.25.790
COORD:N056.07.01.203:W003.13.26.815

SECTORLINE:Mon_Gal
DISPLAY:Montrose:Montrose:Galloway
DISPLAY:Galloway:Galloway:Montrose
COORD:N056.07.01.203:W003.13.26.815
COORD:N056.07.00.000:W002.56.07.000
COORD:N056.00.08.000:W002.48.49.000
COORD:N055.53.35.022:W002.49.31.040

SECTORLINE:Mon_DCS-N Area E2a Inner
DISPLAY:Montrose:Montrose:Deancross
DISPLAY:Deancross:Deancross:Montrose
COORD:N055.53.35.022:W002.49.31.040
COORD:N055.21.09.000:W002.21.41.400

SECTORLINE:Mon_DCS-N Area E2b Inner
DISPLAY:Montrose:Montrose:Deancross
DISPLAY:Deancross:Deancross:Montrose
COORD:N055.21.09.000:W002.21.41.400
COORD:N055.11.13.000:W002.13.01.000
COORD:N055.00.00.000:W002.07.29.000

SECTORLINE:Mon_DCS-S Area E2 Inner
DISPLAY:Montrose:Montrose:Deancross
DISPLAY:Deancross:Deancross:Montrose
COORD:N055.00.00.000:W002.07.29.000
COORD:N054.57.49.163:W002.06.21.435

SECTORLINE:Mon_S29
DISPLAY:Montrose:Montrose:Sector 29
DISPLAY:Sector 29:Sector 29:Montrose
COORD:N054.11.52.802:W001.45.43.000
COORD:N054.01.47.000:W001.35.15.000

SECTORLINE:Mon_S29 Del
DISPLAY:Montrose:Montrose:Sector 29
DISPLAY:Sector 29:Sector 29:Montrose
COORD:N054.14.60.000:W001.48.56.000
COORD:N054.11.52.802:W001.45.43.000

SECTORLINE:Mon_Tay B-C
DISPLAY:Montrose:Montrose:East
DISPLAY:East:East:Montrose
COORD:N054.33.22.908:W001.56.30.643
COORD:N054.31.32.265:W001.39.23.237

SECTORLINE:Mon Area B Inner
DISPLAY:Montrose:Montrose:East
DISPLAY:East:East:Montrose
COORD:N054.11.52.802:W001.45.43.000
COORD:N054.31.32.265:W001.39.23.237

SECTORLINE:Mon Area C Inner
DISPLAY:Montrose:Montrose:East
DISPLAY:East:East:Montrose
COORD:N054.31.32.265:W001.39.23.237
COORD:N054.47.11.211:W001.34.20.918

SECTORLINE:Mon Area D Inner
DISPLAY:Montrose:Montrose:East
DISPLAY:East:East:Montrose
COORD:N055.00.00.000:W001.54.58.173
COORD:N055.00.00.000:W001.30.13.385
COORD:N054.47.11.211:W001.34.20.918

SECTORLINE:Mon EDC
COORD:N055.00.00.000:W002.07.29.000
COORD:N054.57.49.163:W002.06.21.435
COORD:N054.42.48.193:W002.00.23.665
COORD:N054.56.38.296:W001.56.01.963
COORD:N055.00.00.000:W001.54.58.173

SECTORLINE:Mon_Tay C-D
DISPLAY:Montrose:Montrose:East
DISPLAY:East:East:Montrose
COORD:N054.56.38.296:W001.56.01.963
COORD:N054.47.11.211:W001.34.20.918

SECTORLINE:Mon Area D Outer
DISPLAY:Montrose:Montrose:East
DISPLAY:East:East:Montrose
COORD:N055.00.00.000:W001.54.58.173
COORD:N054.56.38.296:W001.56.01.963

SECTORLINE:Mon Area C Outer
DISPLAY:Montrose:Montrose:East
DISPLAY:East:East:Montrose
COORD:N054.42.48.193:W002.00.23.665
COORD:N054.56.38.296:W001.56.01.963

SECTORLINE:Gal_Tal
DISPLAY:Galloway:Galloway:Talla
DISPLAY:Talla:Talla:Galloway
DISPLAY:Deancross:Galloway:Talla
COORD:N055.53.35.022:W002.49.31.040
COORD:N055.48.59.000:W004.01.17.000
COORD:N055.42.40.000:W004.09.11.000
COORD:N054.51.16.000:W003.19.59.000
COORD:N054.15.00.000:W002.33.29.400

SECTORLINE:Tal_Nor
DISPLAY:Talla:Talla:North
DISPLAY:North:North:Talla
COORD:N054.15.00.000:W002.09.60.000
COORD:N054.15.00.000:W002.33.29.400

SECTORLINE:Gal_Ant
DISPLAY:Galloway:Galloway:Antrim
DISPLAY:Antrim:Antrim:Galloway
COORD:N055.12.14.000:W005.02.34.000
COORD:N055.09.59.022:W004.45.00.736
COORD:N055.06.03.000:W004.14.19.000
COORD:N054.32.41.000:W003.30.00.000
COORD:N054.30.10.000:W003.35.35.000

SECTORLINE:Gal_Nor
DISPLAY:Galloway:Galloway:North
DISPLAY:North:North:Galloway
COORD:N054.15.00.000:W003.04.59.023
COORD:N054.15.00.000:W002.33.29.400

SECTORLINE:Gal_IoM1
DISPLAY:Galloway:Galloway:Isle of Man
DISPLAY:Isle of Man:Isle of Man:Galloway
COORD:N054.30.10.000:W003.35.35.000
COORD:N054.15.00.000:W003.33.05.000

SECTORLINE:Gal_IoM2
DISPLAY:Galloway:Galloway:Isle of Man
DISPLAY:Isle of Man:Isle of Man:Galloway
COORD:N054.15.00.000:W003.33.05.000
COORD:N054.15.00.000:W003.04.59.023

SECTORLINE:TalSouth
DISPLAY:Talla:Talla:Deancross
DISPLAY:Deancross:Deancross:Talla
COORD:N054.54.24.000:W002.24.10.000
COORD:N054.15.00.000:W002.09.60.000

SECTORLINE:Tal_TayE2b
DISPLAY:Talla:Talla:Montrose
DISPLAY:Montrose:Montrose:Talla
COORD:N054.54.24.000:W002.24.10.000
COORD:N055.12.29.160:W002.30.18.000
COORD:N055.21.09.000:W002.21.41.400

SECTORLINE:TayE2b
DISPLAY:Montrose:Montrose:Talla
DISPLAY:Talla:Talla:Montrose
DISPLAY:Deancross:Deancross:Montrose
DISPLAY:Montrose:Montrose:Deancross
COORD:N054.54.24.000:W002.24.10.000
COORD:N054.57.49.163:W002.06.21.435

SECTORLINE:Tal_TayE2a
DISPLAY:Talla:Talla:Montrose
DISPLAY:Montrose:Montrose:Galloway
COORD:N055.21.09.000:W002.21.41.400
COORD:N055.26.06.820:W002.36.55.790
COORD:N055.38.05.000:W002.51.11.000
COORD:N055.53.35.022:W002.49.31.040

SECTORLINE:Gal_TayE1
DISPLAY:Galloway:Galloway:Montrose
DISPLAY:Montrose:Montrose:Galloway
COORD:N056.13.60.000:W004.09.26.000
COORD:N056.07.00.000:W004.09.10.000
COORD:N056.02.22.000:W004.05.18.000
COORD:N056.06.59.000:W003.29.38.000
COORD:N056.07.01.203:W003.13.26.815

SECTORLINE:Gal_Tay
DISPLAY:Galloway:Galloway:Montrose
DISPLAY:Montrose:Montrose:Galloway
COORD:N056.07.01.203:W003.13.26.815
COORD:N056.07.00.000:W002.56.08.000
COORD:N056.00.08.000:W002.48.49.000
COORD:N055.53.35.022:W002.49.31.040

SECTORLINE:Wes-Cen_Gal
DISPLAY:Central:Central:Galloway
DISPLAY:Galloway:Galloway:Central
DISPLAY:Deancross:Deancross:Galloway
COORD:N056.13.60.000:W004.09.26.000
COORD:N056.12.34.976:W004.12.55.926
COORD:N055.59.59.000:W004.43.60.000
COORD:N055.49.59.000:W005.00.00.000
COORD:N055.15.11.000:W005.00.00.000
COORD:N055.12.14.000:W005.02.34.000

SECTORLINE:Wes-Cen_Ant
DISPLAY:Antrim:Antrim:Central
DISPLAY:Central:Central:Antrim
COORD:N055.12.14.000:W005.02.34.000
COORD:N055.09.48.000:W005.04.41.000

SECTORLINE:Wes-Rat_Ant
DISPLAY:Antrim:Antrim:Rathlin West
DISPLAY:Antrim:Antrim:Rathlin East
DISPLAY:Rathlin West:Rathlin West:Antrim
DISPLAY:Rathlin East:Rathlin East:Antrim
COORD:N055.09.48.000:W005.04.41.000
COORD:N055.07.49.000:W005.06.23.000

SECTORLINE:Ant_Wes-Rat
DISPLAY:Antrim:Antrim:Rathlin West
DISPLAY:Antrim:Antrim:Rathlin East
DISPLAY:Rathlin West:Rathlin West:Antrim
DISPLAY:Rathlin East:Rathlin East:Antrim
COORD:N055.07.49.000:W005.06.23.000
COORD:N054.57.14.000:W005.15.30.000
COORD:N054.54.17.000:W005.29.59.000
COORD:N054.50.30.000:W006.24.41.000
COORD:N054.49.48.686:W006.26.29.498
COORD:N054.49.04.685:W006.28.00.221
COORD:N054.48.16.895:W006.29.23.982
COORD:N054.47.25.664:W006.30.40.141
COORD:N054.46.29.597:W006.31.48.122
COORD:N054.45.30.913:W006.32.47.412
COORD:N054.44.29.465:W006.33.37.567
COORD:N054.43.25.724:W006.34.18.215
COORD:N054.42.20.178:W006.34.49.572
COORD:N054.41.13.327:W006.35.09.870
COORD:N054.40.05.681:W006.35.20.511
COORD:N054.38.57.757:W006.35.20.911
COORD:N054.37.50.718:W006.35.11.829
COORD:N054.36.43.138:W006.34.51.113
COORD:N054.35.37.465:W006.34.21.170
COORD:N054.34.33.551:W006.33.41.491
COORD:N054.33.31.879:W006.32.52.390
COORD:N054.32.32.915:W006.31.54.251
COORD:N054.31.37.106:W006.30.47.521
COORD:N054.30.44.870:W006.29.32.715
COORD:N054.29.56.603:W006.28.10.404
COORD:N054.29.12.667:W006.26.41.215
COORD:N054.28.33.393:W006.25.05.824
COORD:N054.27.59.768:W006.23.24.951
COORD:N054.27.54.443:W006.23.06.078
COORD:N054.05.30.000:W006.24.38.000

SECTORLINE:Ant_EIDW
DISPLAY:Antrim:Antrim:DUBN
COORD:N054.05.30.000:W006.24.38.000
COORD:N053.55.00.000:W005.30.00.000
COORD:N053.48.17.000:W005.30.00.000