SOLENT_APP:Solent Radar:120.220:SOL:O:SOLENT:APP:-:-:3660:3677:N050.57.00.000:W001.21.24.490::
SOLENT_APP:Solent Radar:120.220:SOL:O:SOL:APP:-:-:3660:3677:N050.57.00.000:W001.21.24.490::
EGHI_APP:Southampton Radar:128.850:HIR:S:EGHI:APP:-:-:3660:3677:N050.57.00.000:W001.21.24.490::
EGHI_TWR:Southampton Tower:118.200:HIT:S:EGHI:TWR:-:-:3660:3677:N050.57.00.000:W001.21.24.490::
EGHI_GND:Southampton Ground:121.770:HIG:S:EGHI:GND:-:-:3660:3677:N050.57.00.000:W001.21.24.490::
EGHI_ATIS:Southampton ATIS:130.370:HII:S:EGHI:ATIS:-:-::::::