EGNM Leeds Bradford               S999.00.00.000 E999.00.00.000 S999.00.00.000 E999.00.00.000
N053.52.10.558 W001.39.49.201 N053.52.11.181 W001.39.48.625 standHold ;A2
N053.52.04.548 W001.39.39.383 N053.52.04.495 W001.39.37.963 standHold ;B
N053.52.04.421 W001.39.28.381 N053.52.04.377 W001.39.26.415 standHold ;C
N053.51.50.392 W001.39.16.875 N053.51.50.332 W001.39.15.615 standHold ;D1
N053.51.58.990 W001.39.15.995 N053.51.58.941 W001.39.14.784 standHold ;D2
N053.52.04.960 W001.39.16.245 N053.52.04.895 W001.39.13.601 standHold ;D3
N053.52.26.268 W001.40.17.150 N053.52.25.582 W001.40.16.080 standHold ;E1
N053.52.23.297 W001.40.12.573 N053.52.23.241 W001.40.11.048 standHold ;E2
N053.52.05.501 W001.39.58.344 N053.52.05.195 W001.39.57.560 standHold ;F1
N053.52.00.997 W001.40.02.654 N053.52.00.883 W001.40.01.963 standHold ;F3
N053.51.59.244 W001.40.03.015 N053.51.59.247 W001.40.02.286 standHold ;F4
N053.51.59.322 W001.40.00.787 N053.51.59.615 W001.40.00.522 standHold ;G1
N053.51.54.026 W001.39.46.309 N053.51.54.246 W001.39.45.906 standHold ;G2
N053.51.36.749 W001.39.18.834 N053.51.36.668 W001.39.16.411 standHold ;J
N053.51.54.719 W001.39.42.067 N053.51.54.175 W001.39.41.252 standHold ;L1
N053.51.53.775 W001.39.43.801 N053.51.53.244 W001.39.43.016 standHold ;L2
N053.51.52.531 W001.39.46.105 N053.51.51.690 W001.39.44.825 standHold ;L3
N053.52.03.437 W001.39.55.378 N053.52.02.669 W001.39.55.392 standHold ;M1
N053.52.03.167 W001.39.33.443 N053.52.02.409 W001.39.33.459 standHold ;N1
N053.52.02.947 W001.39.19.788 N053.52.02.206 W001.39.19.790 standHold ;N2
N053.52.02.809 W001.39.12.085 N053.52.02.071 W001.39.12.109 standHold ;N3
N053.52.04.088 W001.39.08.366 N053.52.04.061 W001.39.07.078 standHold ;N4