London AC Worthing          S999.00.00.000 E999.00.00.000 S999.00.00.000 E999.00.00.000
                            N051.39.43.000 W001.26.46.000 N051.34.23.000 W001.11.38.000 ;LCS1
                            N051.34.23.000 W001.11.38.000 N051.40.14.600 W000.45.46.000 ;LCS2
                            N051.40.14.600 W000.45.46.000 N051.42.55.900 W000.33.54.000 ;LCS3
                            N051.42.55.900 W000.33.54.000 N051.48.04.000 W000.11.14.000 ;LCSD1
                            N051.56.19.000 W000.07.48.000 N051.48.04.000 W000.11.14.000 ;LCSD2
                            N051.56.19.000 W000.07.48.000 N051.48.01.000 E000.00.08.000 ;LTC5
                            N051.48.01.000 E000.00.08.000 N051.42.22.000 E000.09.04.000
                            N051.42.22.000 E000.09.04.000 N051.27.15.000 E000.33.00.000 ;LESD1
                            N051.08.53.000 W000.11.25.000 N051.17.51.000 E000.10.10.000 ;LTC28
                            N051.17.51.000 E000.10.10.000 N051.27.15.000 E000.32.60.000
                            N051.08.53.000 W000.11.25.000 N050.50.57.000 E000.11.55.000 ;LSD2
                            N050.50.57.000 E000.11.55.000 N050.44.14.000 E000.20.34.000
                            N050.44.14.000 E000.20.34.000 N050.24.05.000 E000.46.11.000
                            N050.00.00.000 W000.15.00.000 N050.24.05.000 E000.46.11.000 ;LSFF
                            N049.54.57.000 W002.30.12.000 N049.59.60.000 W002.00.00.000 ;LSRR
                            N049.59.60.000 W002.00.00.000 N050.00.00.000 W000.15.00.000
                            N049.54.57.000 W002.30.12.000 N050.17.45.000 W002.27.25.000 ;LWS1
                            N050.17.45.000 W002.27.25.000 N050.37.12.000 W002.17.31.000
                            N050.37.12.000 W002.17.31.000 N050.39.47.000 W002.31.09.000
                            N050.39.47.000 W002.31.09.000 N050.44.59.000 W002.31.07.000
                            N050.44.59.000 W002.31.07.000 N050.49.47.000 W002.33.17.000
                            N050.49.47.000 W002.33.17.000 N050.55.43.000 W002.00.00.000
                            N050.55.43.000 W002.00.00.000 N051.15.26.000 W001.59.60.000
                            N051.15.26.000 W001.59.60.000 N051.12.38.000 W001.35.60.000 ;LWS2
                            N051.12.38.000 W001.35.60.000 N051.13.06.000 W001.30.31.000
                            N051.13.06.000 W001.30.31.000 N051.13.50.000 W001.21.59.000 ;LTC27
                            N051.39.43.000 W001.26.46.000 N051.36.01.000 W001.24.53.000 ;LTC21a
                            N051.36.01.000 W001.24.53.000 N051.35.32.000 W001.21.02.000
                            N051.35.32.000 W001.21.02.000 N051.16.17.000 W001.20.57.000
                            N051.16.17.000 W001.20.57.000 N051.13.50.000 W001.21.59.000
                            N051.42.22.000 E000.09.04.000 N051.27.52.000 E000.10.09.000 ;LTC7
                            N051.18.17.000 W000.26.47.000 N051.19.16.000 E000.01.36.500 ;LTC16
                            N051.19.16.000 E000.01.36.500 N051.27.52.000 E000.10.09.000
                            N051.40.14.600 W000.45.46.000 N051.29.04.000 W000.27.53.000 ;LSD1
                            N051.29.04.000 W000.27.53.000 N051.18.17.000 W000.26.47.000 ;LTC18
                            N051.18.17.000 W000.26.47.000 N051.08.53.000 W000.11.25.000 ;LTC15a
                            N050.55.11.700 W001.30.48.700 N050.53.34.000 W001.40.51.000 ;LTC22a
                            N050.53.34.000 W001.40.51.000 N051.00.38.000 W001.35.41.000
                            N051.00.38.000 W001.35.41.000 N051.13.06.000 W001.30.31.000
                            N051.13.50.000 W001.21.59.000 N050.58.58.000 W001.28.10.000 ;LTC21b
                            N050.58.58.000 W001.28.10.000 N050.55.11.700 W001.30.48.700
                            N050.55.11.700 W001.30.48.700 N050.49.44.390 W001.34.35.400 ;LTC20
                            N050.49.44.390 W001.34.35.400 N050.49.28.000 W001.17.14.000
                            N050.49.28.000 W001.17.14.000 N050.55.38.000 W001.13.13.000 ;LTC19b
                            N050.55.38.000 W001.13.13.000 N051.11.17.000 W001.06.36.000
                            N051.11.17.000 W001.06.36.000 N051.17.35.000 W001.03.35.000 ;LTC19a
                            N051.17.35.000 W001.03.35.000 N051.30.37.000 W000.38.30.000
                            N051.30.37.000 W000.38.30.000 N051.29.04.000 W000.27.53.000 ;LTC24
                            N050.49.28.000 W001.17.14.000 N050.49.25.500 W001.15.38.000 ;LTC26
                            N050.49.25.500 W001.15.38.000 N050.48.48.000 W000.52.14.000 ;LTC14
                            N050.48.48.000 W000.52.14.000 N050.32.49.000 W000.35.06.000
                            N050.32.49.000 W000.35.06.000 N050.45.38.000 E000.07.19.000
                            N050.45.38.000 E000.07.19.000 N050.44.14.000 E000.20.34.000